^C:\USERS\CHOI\DOCUMENTS\VISUAL STUDIO 2013\PROJECTS\MYSYSTEMSERVER\DEBUG\MAIN.OBJ
C:\USERS\CHOI\DOCUMENTS\VISUAL STUDIO 2013\PROJECTS\MYSYSTEMSERVER\DEBUG\MYSYSTEMSERVER.ILK
C:\USERS\CHOI\DOCUMENTS\VISUAL STUDIO 2013\PROJECTS\MYSYSTEMSERVER\DEBUG\MYSYSTEMSERVER.EXE
C:\USERS\CHOI\DOCUMENTS\VISUAL STUDIO 2013\PROJECTS\MYSYSTEMSERVER\DEBUG\MYSYSTEMSERVER.PDB
